[1:6] -- perfil --> ingresar. usuario: 153 ==> ok
[1:22] -- perfil --> ingresar. usuario: 153 ==> ok
[1:44] -- SMS --> enviar. usuario: 153, id_envio: envio object, empresa_telefono_receptor: ENTEL PCS TELECOMUNICACIONES S.A., destinatario: 76542974, id_contacto: connectus, fecha: 2016-11-09 01:44:08.491164 ==> ok
[10:7] -- perfil --> ingresar. usuario: 153 ==> ok
[10:40] -- MAIL --> enviar. usuario: 153id_envio: envio object, destinario :admin@nullpointerex.com ==> ok
[11:20] -- perfil --> ingresar. usuario: 153 ==> ok
[11:22] -- Empresa --> cargar creditos. empresa: 132, saldo_mail: 842, saldo sms: 1016, id cuenta corriente: 86, reqsms: 6, reqmail: 0 ==> error
[11:42] -- perfil --> ingresar. usuario: 153 ==> ok
[11:43] -- perfil --> ingresar. usuario: 153 ==> ok
[11:52] -- perfil --> ingresar. usuario: 153 ==> ok
[11:53] -- perfil --> ingresar. usuario: 644 ==> ok
[11:58] -- Cliente --> Ver. Usuario: 644 ==> ok
[12:1] -- Empresa --> registrar. password: *****, nombre: nuevo nombre R, email: admin@grupoerre.com, telephone: 000000, password: *****, rut_empresa: XX.XXX.XXX.X, razon_social: 11.11.111-1, status: 1 ==> ok, creados 20 creditos, 10 SMS y 10 mail
[12:1] -- Usuario --> registrar. username: grupo R, password: *****, nombre: nuevo nombre R, email: admin@grupoerre.com ==> ok
[12:1] -- Cliente --> Ver. Usuario: 644 ==> ok
[12:25] -- perfil --> ingresar. usuario: 644 ==> ok
[12:31] -- Empresa --> cargar creditos. empresa: 635, saldo_mail: 20, saldo sms: 10, id cuenta corriente: 564 ==> ok
[12:45] -- perfil --> ingresar. usuario: 644 ==> ok
[12:46] -- Usuario --> ver. usuario: 644 ==> ok
[12:47] -- Usuario --> crear. usuario creado: 650 ==> ok
[12:47] -- Cliente --> Ver. Usuario: 644 ==> ok
[12:58] -- Usuario --> ver. usuario: 644 ==> ok
[13:4] -- perfil --> ingresar. usuario: 644 ==> ok
[13:5] -- Usuario --> ver. usuario: 644 ==> ok
[13:10] -- perfil --> ingresar. usuario: 1 ==> ok
[13:16] -- perfil --> ingresar. usuario: 1 ==> ok
[13:18] -- perfil --> ingresar. usuario: 1 ==> ok
[13:19] -- perfil --> ingresar. usuario: 1 ==> ok
[13:20] -- perfil --> ingresar. usuario: 1 ==> ok
[13:21] -- perfil --> ingresar. usuario: 1 ==> ok
[13:22] -- perfil --> ingresar. usuario: 1 ==> ok
[13:23] -- perfil --> ingresar. usuario: 1 ==> ok
[13:26] -- perfil --> ingresar. usuario: 1 ==> ok
[13:30] -- perfil --> ingresar. usuario: 1 ==> ok
[13:34] -- perfil --> ingresar. usuario: 1 ==> ok
[13:37] -- perfil --> ingresar. usuario: 1 ==> ok
[13:38] -- perfil --> ingresar. usuario: 1 ==> ok
[13:40] -- perfil --> ingresar. usuario: 1 ==> ok
[13:41] -- perfil --> ingresar. usuario: 1 ==> ok
[13:54] -- perfil --> ingresar. usuario: 1 ==> ok
[13:56] -- perfil --> ingresar. usuario: 1 ==> ok
[14:6] -- perfil --> ingresar. usuario: 153 ==> ok
[14:7] -- perfil --> ingresar. usuario: 1 ==> ok
[14:7] -- perfil --> ingresar. usuario: 1 ==> ok
[14:8] -- perfil --> ingresar. usuario: 1 ==> ok
[14:9] -- perfil --> ingresar. usuario: 7 ==> ok
[14:9] -- Empresa --> ver movimientos. empresa: 132 ==> ok
[14:10] -- Cliente --> Ver. Usuario: 7 ==> ok
[14:10] -- perfil --> ingresar. usuario: 1 ==> ok
[14:10] -- perfil --> ingresar. usuario: 7 ==> ok
[14:10] -- Cliente --> Ver. Usuario: 7 ==> ok
[14:11] -- perfil --> ingresar. usuario: 1 ==> ok
[14:11] -- perfil --> ingresar. usuario: 7, entrar_como: 424 ==> ok
[14:11] -- perfil --> ingresar. usuario: 1 ==> ok
[14:11] -- Lista --> ver. usuario: 7 ==> ok
[14:12] -- Archivos --> ver. usuario: 7 ==> ok
[14:13] -- perfil --> ingresar. usuario: 1 ==> ok
[14:17] -- perfil --> ingresar. usuario: 1 ==> ok
[14:18] -- perfil --> ingresar. usuario: 1 ==> ok
[14:19] -- perfil --> ingresar. usuario: 1 ==> ok
[14:22] -- perfil --> ingresar. usuario: 1 ==> ok
[14:23] -- perfil --> ingresar. usuario: 1 ==> ok
[14:23] -- perfil --> ingresar. usuario: 1 ==> ok
[14:24] -- perfil --> ingresar. usuario: 153 ==> ok
[14:28] -- perfil --> ingresar. usuario: 1 ==> ok
[14:31] -- perfil --> ingresar. usuario: 1 ==> ok
[14:35] -- perfil --> ingresar. usuario: 1 ==> ok
[14:45] -- perfil --> ingresar. usuario: 1 ==> ok
[14:54] -- Lista --> ver. usuario: 153 ==> ok
[16:58] -- perfil --> ingresar. usuario: 1 ==> ok
