[0:20] -- MAIL --> enviar. usuario: 1id_envio: envio object, destinario :fsalazar.sch@gmail.com ==> ok
[0:25] -- MAIL --> enviar. usuario: 1id_envio: envio object, destinario :fsalazar.sch@gmail.com ==> ok
[0:25] -- MAIL --> enviar. usuario: 1id_envio: envio object, destinario :fsalazar.sch@gmail.com ==> ok
[0:28] -- MAIL --> enviar. usuario: 1id_envio: envio object, destinario :fsalazar.sch@gmail.com ==> ok
[0:32] -- MAIL --> enviar. usuario: 1id_envio: envio object, destinario :fsalazar.sch@gmail.com ==> ok
[0:35] -- MAIL --> enviar. usuario: 1id_envio: envio object, destinario :fsalazar.sch@gmail.com ==> ok
[0:41] -- MAIL --> enviar. usuario: 1id_envio: envio object, destinario :fsalazar.sch@gmail.com ==> ok
[0:55] -- MAIL --> enviar. usuario: 1id_envio: envio object, destinario :fsalazar.sch@gmail.com ==> ok
[1:3] -- MAIL --> enviar. usuario: 1id_envio: envio object, destinario : ==> ok
[1:4] -- MAIL --> enviar. usuario: 1id_envio: envio object, destinario : ==> ok
[1:4] -- MAIL --> enviar. usuario: 1id_envio: envio object, destinario : ==> ok
[1:23] -- MAIL --> enviar. usuario: 1id_envio: envio object, destinario : ==> ok
[1:28] -- MAIL --> enviar. usuario: 1id_envio: envio object, destinario : ==> ok
[1:30] -- MAIL --> enviar. usuario: 1id_envio: envio object, destinario : ==> ok
[1:31] -- MAIL --> enviar. usuario: 1id_envio: envio object, destinario : ==> ok
[1:34] -- MAIL --> enviar. usuario: 1id_envio: envio object, destinario : ==> ok
[1:35] -- MAIL --> enviar. usuario: 1id_envio: envio object, destinario : ==> ok
[1:35] -- MAIL --> enviar. usuario: 1id_envio: envio object, destinario : ==> ok
[1:36] -- MAIL --> enviar. usuario: 1id_envio: envio object, destinario : ==> ok
[10:24] -- MAIL --> enviar. usuario: 1id_envio: envio object, destinario :fsalazar.sch@gmail.com ==> ok
[10:25] -- MAIL --> enviar. usuario: 1id_envio: envio object, destinario :fsalazar.sch@gmail.com ==> ok
[10:43] -- MAIL --> enviar. usuario: 1id_envio: envio object, destinario :fsalazar.sch@gmail.com ==> ok
[10:44] -- MAIL --> enviar. usuario: 1id_envio: envio object, destinario :fsalazar.sch@gmail.com ==> ok
[10:46] -- MAIL --> enviar. usuario: 1id_envio: envio object, destinario :fsalazar.sch@gmail.com ==> ok
[10:48] -- MAIL --> enviar. usuario: 1id_envio: envio object, destinario :fsalazar.sch@gmail.com ==> ok
[10:52] -- MAIL --> enviar. usuario: 1id_envio: envio object, destinario :fsalazar.sch@gmail.com ==> ok
[10:53] -- MAIL --> enviar. usuario: 1id_envio: envio object, destinario :fsalazar.sch@gmail.com ==> ok
