[00:52] -- perfil --> ingresar. usuario: 1, entrar_como: 415 ==> ok
[00:52] -- perfil --> ingresar. usuario: 1, entrar_como: 415 ==> ok
[08:32] -- sms recibido --> {'to': '56442147839', 'message': ' eo y me es practicamente imposible llegar antes del mediodia a mi casa. Disculpe las molestias. Espero su respuesta.', 'arrived': '2017-01-17 08:22:54.550291', 'id': 21702872, 'from': '56952338607'}. 21702872 ==> ok
[08:45] -- perfil --> ingresar. usuario: 1 ==> ok
[08:46] -- Cliente --> Ver. Usuario: 1 ==> ok
[08:48] -- Usuario --> ver. usuario: 1 ==> ok
[08:48] -- Usuario --> ver. usuario: 1 ==> ok
[08:49] -- Reporte --> ver. usuario: 1 ==> ok
[08:49] -- Reporte --> ver. usuario: 1 ==> ok
[08:50] -- perfil --> ingresar. usuario: 1, entrar_como: 415 ==> ok
[08:50] -- Lista --> ver. usuario: 1 ==> ok
[08:52] -- Cliente --> Ver. Usuario: 1 ==> ok
[08:53] -- Mensajes recibidos --> empresa. 415 ==>  ok
[09:01] -- perfil --> ingresar. usuario: 1 ==> ok
[09:01] -- perfil --> ingresar. usuario: 2 ==> ok
[09:02] -- perfil --> ingresar. usuario: 1, entrar_como: 415 ==> ok
[09:02] -- perfil --> ingresar. usuario: 1, entrar_como: 443 ==> ok
[09:02] -- perfil --> ingresar. usuario: 1, entrar_como: 2 ==> ok
[09:16] -- perfil --> ingresar. usuario: 1, entrar_como: 2 ==> ok
[09:17] -- perfil --> ingresar. usuario: 1, entrar_como: 2 ==> ok
[09:17] -- perfil --> ingresar. usuario: 1 ==> ok
[09:24] -- sms recibido --> {'to': '56442147839', 'message': 'No voy a estar hoy dia, disculpe.', 'arrived': '2017-01-17 09:14:43.145068', 'id': 21703176, 'from': '56999383623'}. 21703176 ==> ok
[09:39] -- perfil --> ingresar. usuario: 1, entrar_como: 2 ==> ok
[09:39] -- perfil --> ingresar. usuario: 1 ==> ok
[09:47] -- perfil --> ingresar. usuario: 1 ==> ok
[09:48] -- perfil --> ingresar. usuario: 1 ==> ok
[09:48] -- perfil --> ingresar. usuario: 1 ==> ok
[09:49] -- perfil --> ingresar. usuario: 1, entrar_como: 2 ==> ok
[09:49] -- perfil --> ingresar. usuario: 1 ==> ok
[09:49] -- perfil --> ingresar. usuario: 1, entrar_como: 415 ==> ok
[09:49] -- perfil --> ingresar. usuario: 1, entrar_como: 415 ==> ok
[09:51] -- Cliente --> Ver. Usuario: 1 ==> ok
[09:51] -- Cliente --> Ver. Usuario: 1 ==> ok
[09:51] -- perfil --> ingresar. usuario: 1, entrar_como: 2 ==> ok
[09:51] -- perfil --> ingresar. usuario: 1 ==> ok
[09:53] -- Cliente --> Ver. Usuario: 1 ==> ok
[10:21] -- Cliente --> Ver. Usuario: 1 ==> ok
[10:22] -- Lista --> ver. usuario: 547 ==> ok
[10:22] -- Lista --> ver. usuario: 547 ==> ok
[10:22] -- Lista --> ver. usuario: 547 ==> ok
[10:24] -- Lista --> ver. usuario: 547 ==> ok
[10:24] -- sms --> 94129183. Hola 10 ==> ok
[10:24] -- sms --> 94412372. Hola 11 ==> ok
[10:24] -- SMS --> enviar. usuario: 547, id_envio: 52224, destinatario: 94412372, id_contacto: 1384371, fecha: 2017-01-17 10:24:32.616032 ==> ok
[10:25] -- Estado sms --> 212022356--CONFIRMED DELIVERY. envio valorizado ==> ok
[10:25] -- Estado sms --> 212022357--CONFIRMED DELIVERY. envio valorizado ==> ok
[10:25] -- Cliente --> Ver. Usuario: 1 ==> ok
[10:25] -- perfil --> ingresar. usuario: 1, entrar_como: 2 ==> ok
[10:25] -- perfil --> ingresar. usuario: 1 ==> ok
[10:25] -- perfil --> ingresar. usuario: 1, entrar_como: 2 ==> ok
[10:25] -- perfil --> ingresar. usuario: 1 ==> ok
[10:30] -- Cliente --> Ver. Usuario: 1 ==> ok
[10:30] -- Cliente --> Ver. Usuario: 1 ==> ok
[10:36] -- perfil --> ingresar. usuario: 2 ==> ok
[10:39] -- Cliente --> Ver. Usuario: 2 ==> ok
[10:44] -- Empresa --> registrar. password: *****, nombre: Sebastian Fernandez, email: SFERNANDEZ@FERNANDEZYASOCIADOS.CL, telephone: +56227060711, password: *****, rut_empresa: 76.192.811-2, razon_social: Servicios Juridicos Bocangel y Fernandez Limitada, status: 1 ==> ok, creados 20 creditos, 10 SMS y 10 mail
[10:44] -- Usuario --> registrar. username: estudio, password: *****, nombre: Sebastian Fernandez, email: SFERNANDEZ@FERNANDEZYASOCIADOS.CL ==> ok
[10:44] -- Cliente --> Ver. Usuario: 2 ==> ok
[10:47] -- perfil --> ingresar. usuario: 2 ==> ok
[10:47] -- perfil --> ingresar. usuario: 2 ==> ok
[10:47] -- Cliente --> Ver. Usuario: 1 ==> ok
[10:47] -- Cliente --> Ver. Usuario: sin perfil ==> error
[10:47] -- Cliente --> Ver. Usuario: 1 ==> ok
[10:47] -- Cliente --> Ver. Usuario: 2 ==> ok
[10:47] -- Cliente --> Ver. Usuario: 1 ==> ok
[10:47] -- Usuario --> ver. usuario: 2 ==> ok
[10:48] -- Usuario --> editar. usuario: 702 ==> ok
[10:48] -- Usuario --> ver. usuario: 2 ==> ok
[10:48] -- Usuario --> ver. usuario: 1 ==> ok
[10:49] -- perfil --> ingresar. usuario: 702 ==> ok
[10:50] -- perfil --> ingresar. usuario: 2 ==> ok
[10:50] -- Cliente --> Ver. Usuario: 2 ==> ok
[10:50] -- perfil --> ingresar. usuario: 2, entrar_como: 696 ==> ok
[10:50] -- Usuario --> ver. usuario: 1 ==> ok
[10:51] -- Cliente --> Ver. Usuario: 1 ==> ok
[10:51] -- perfil --> ingresar. sin autenticar ==> error
[10:51] -- perfil --> ingresar. sin autenticar ==> error
[10:51] -- Cliente --> Ver. Usuario: 1 ==> ok
[10:51] -- Cliente --> Ver. Usuario: sin perfil ==> error
[10:51] -- Cliente --> Ver. Usuario: 1 ==> ok
[10:54] -- Cliente --> Ver. Usuario: 1 ==> ok
[10:54] -- Lista --> ver. usuario: 2 ==> ok
[10:54] -- Cliente --> Ver. Usuario: 1 ==> ok
[10:55] -- Lista --> ver. usuario: 2 ==> ok
[10:55] -- Lista --> ver. usuario: 2 ==> ok
[10:55] -- Lista --> ver lista especifica. usuario: 2, lista: 3758 ==> ok
[10:59] -- sms --> 99411932. Estimado Cliente, le recordamos que tiene un juicio pendiente. ==> ok
[10:59] -- sms --> 94412372. Estimado Cliente, le recordamos que tiene un juicio pendiente. ==> ok
[10:59] -- sms --> 83404710. Estimado Cliente, le recordamos que tiene un juicio pendiente. ==> ok
[10:59] -- SMS --> enviar. usuario: 2, id_envio: 52225, destinatario: 83404710, id_contacto: 1384374, fecha: 2017-01-17 10:59:14.983664 ==> ok
[10:59] -- Mensajes recibidos --> empresa. 696 ==>  ok
[11:02] -- Cliente --> Ver. Usuario: 2 ==> ok
[11:03] -- Lista --> ver. usuario: 2 ==> ok
[11:03] -- Lista --> ver lista especifica. usuario: 2, lista: 3760 ==> ok
[11:05] -- sms --> 99411932. Hola Sebastian su monto adeudado es de 100000 agradecemos pagarlo a la brevedad. ==> ok
[11:05] -- sms --> 94412372. Hola Matias su monto adeudado es de 200000 agradecemos pagarlo a la brevedad. ==> ok
[11:05] -- sms --> 83404710. Hola Alejandro su monto adeudado es de 50000 agradecemos pagarlo a la brevedad. ==> ok
[11:05] -- SMS --> enviar. usuario: 2, id_envio: 52226, destinatario: 83404710, id_contacto: 1384377, fecha: 2017-01-17 11:05:09.435291 ==> ok
[11:05] -- Mensajes recibidos --> empresa. 696 ==>  ok
[11:10] -- Cliente --> Ver. Usuario: 2 ==> ok
[11:10] -- perfil --> ingresar. usuario: 2, entrar_como: 691 ==> ok
[11:10] -- Cliente --> Ver. Usuario: 2 ==> ok
[11:10] -- perfil --> ingresar. usuario: 2, entrar_como: 690 ==> ok
[11:11] -- perfil --> ingresar. usuario: 2 ==> ok
[11:11] -- Cliente --> Ver. Usuario: 2 ==> ok
[11:11] -- perfil --> ingresar. usuario: 2, entrar_como: 690 ==> ok
[11:11] -- perfil --> ingresar. usuario: 702 ==> ok
[11:11] -- Cliente --> Ver. Usuario: 2 ==> ok
[11:11] -- perfil --> ingresar. usuario: 2, entrar_como: 690 ==> ok
[11:11] -- perfil --> ingresar. usuario: 2 ==> ok
[11:11] -- perfil --> ingresar. usuario: 2, entrar_como: 689 ==> ok
[11:12] -- perfil --> ingresar. usuario: 2 ==> ok
[11:12] -- perfil --> ingresar. usuario: 2, entrar_como: 690 ==> ok
[11:12] -- perfil --> ingresar. usuario: 2 ==> ok
[11:12] -- perfil --> ingresar. usuario: 2, entrar_como: 415 ==> ok
[11:12] -- Usuario --> ver. usuario: 2 ==> ok
[11:12] -- Usuario --> ver. usuario: 2 ==> ok
[11:12] -- Usuario --> ver. usuario: 2 ==> ok
[11:12] -- Usuario --> ver. usuario: 2 ==> ok
[11:13] -- Usuario --> ver. usuario: 2 ==> ok
[11:13] -- Cliente --> Ver. Usuario: 2 ==> ok
[11:13] -- Cliente --> Ver. Usuario: 2 ==> ok
[11:13] -- perfil --> ingresar. usuario: 2, entrar_como: 690 ==> ok
[11:13] -- Cliente --> Ver. Usuario: 2 ==> ok
[11:13] -- perfil --> ingresar. usuario: 2, entrar_como: 696 ==> ok
[11:15] -- perfil --> ingresar. usuario: 702 ==> ok
[11:15] -- perfil --> ingresar. usuario: 1, entrar_como: 690 ==> ok
[11:15] -- perfil --> ingresar. usuario: 1 ==> ok
[11:16] -- perfil --> ingresar. usuario: 1, entrar_como: 690 ==> ok
[11:16] -- perfil --> ingresar. usuario: 1 ==> ok
[11:16] -- perfil --> ingresar. usuario: 702 ==> ok
[11:16] -- perfil --> ingresar. usuario: 1, entrar_como: 690 ==> ok
[11:16] -- Mensajes recibidos --> empresa. 0 ==>  ok
[11:16] -- Lista --> ver. usuario: 702 ==> ok
[11:17] -- perfil --> ingresar. usuario: 702 ==> ok
[11:17] -- sms recibido --> {'to': '56442147839', 'message': 'Gracias!', 'arrived': '2017-01-17 11:08:04.108925', 'id': 21704071, 'from': '56994412372'}. 21704071 ==> ok
[11:17] -- Mensajes recibidos --> empresa. 0 ==>  ok
[11:17] -- Lista --> ver. usuario: 702 ==> ok
[11:17] -- perfil --> ingresar. usuario: 1, entrar_como: 690 ==> ok
[11:17] -- perfil --> ingresar. usuario: 1, entrar_como: 690 ==> ok
[11:17] -- Lista --> ver lista especifica. usuario: 702, lista: 3763 ==> ok
[11:18] -- Mensajes recibidos --> empresa. 0 ==>  ok
[11:18] -- perfil --> ingresar. usuario: 1, entrar_como: 690 ==> ok
[11:18] -- perfil --> ingresar. usuario: 1, entrar_como: 690 ==> ok
[11:19] -- perfil --> ingresar. usuario: 1, entrar_como: 690 ==> ok
[11:19] -- perfil --> ingresar. usuario: 1, entrar_como: 690 ==> ok
[11:20] -- SMS --> enviar. usuario: 702 ==> error: creditos insuficientes
[11:20] -- perfil --> ingresar. usuario: 702 ==> ok
[11:21] -- perfil --> ingresar. usuario: 702 ==> ok
[11:21] -- Lista --> ver. usuario: 702 ==> ok
[11:21] -- Lista --> ver lista especifica. usuario: 702, lista: 3763 ==> ok
[11:22] -- perfil --> ingresar. usuario: 702 ==> ok
[11:22] -- perfil --> ingresar. usuario: 1 ==> ok
[11:22] -- Empresa --> ver pedidos. empresa: 132 ==> ok
[11:23] -- perfil --> ingresar. usuario: 702 ==> ok
[11:23] -- perfil --> ingresar. usuario: 1, entrar_como: 691 ==> ok
[11:24] -- Cliente --> Ver. Usuario: 1 ==> ok
[11:24] -- perfil --> ingresar. usuario: 1, entrar_como: 696 ==> ok
[11:25] -- perfil --> ingresar. usuario: 702 ==> ok
[11:26] -- Mensajes recibidos --> empresa. 0 ==>  ok
[11:27] -- perfil --> ingresar. usuario: 2 ==> ok
[11:27] -- Cliente --> Ver. Usuario: 2 ==> ok
[11:28] -- perfil --> ingresar. usuario: 1, entrar_como: 696 ==> ok
[11:29] -- Empresa --> cargar creditos. empresa: 696, saldo_mail: 10, saldo sms: 5001, id cuenta corriente: 613 ==> ok
[11:29] -- Cliente --> Ver. Usuario: 2 ==> ok
[11:29] -- perfil --> ingresar. usuario: 2, entrar_como: 696 ==> ok
[11:30] -- perfil --> ingresar. usuario: 702 ==> ok
[11:41] -- perfil --> ingresar. usuario: 702 ==> ok
[11:43] -- perfil --> ingresar. usuario: 1 ==> ok
[11:43] -- Empresa --> ver pedidos. empresa: 132 ==> ok
[11:46] -- perfil --> ingresar. usuario: 702 ==> ok
[11:48] -- Mensajes recibidos --> empresa. 0 ==>  ok
[11:49] -- perfil --> ingresar. usuario: 1, entrar_como: 696 ==> ok
[11:49] -- Mensajes recibidos --> empresa. 696 ==>  ok
[11:49] -- Lista --> ver. usuario: 1 ==> ok
[11:49] -- Lista --> ver lista especifica. usuario: 1, lista: 3763 ==> ok
[11:50] -- Lista --> ver lista especifica. usuario: 1, lista: 3760 ==> ok
[11:50] -- Lista --> ver lista especifica. usuario: 1, lista: 3758 ==> ok
[11:59] -- perfil --> ingresar. usuario: 1, entrar_como: 690 ==> ok
[12:00] -- perfil --> ingresar. usuario: 1 ==> ok
[12:01] -- perfil --> ingresar. usuario: 1, entrar_como: 2 ==> ok
[12:01] -- perfil --> ingresar. usuario: 1 ==> ok
[12:01] -- perfil --> ingresar. usuario: 1, entrar_como: 415 ==> ok
[12:01] -- perfil --> ingresar. usuario: 1 ==> ok
[12:01] -- perfil --> ingresar. usuario: 1, entrar_como: 2 ==> ok
[12:01] -- perfil --> ingresar. usuario: 1 ==> ok
[12:02] -- perfil --> ingresar. sin autenticar ==> error
[12:03] -- perfil --> ingresar. usuario: 1, entrar_como: 415 ==> ok
[12:03] -- perfil --> ingresar. usuario: 1, entrar_como: 415 ==> ok
[12:03] -- perfil --> ingresar. sin autenticar ==> error
[12:11] -- Cliente --> Ver. Usuario: 1 ==> ok
[12:14] -- perfil --> ingresar. usuario: 702 ==> ok
[12:15] -- perfil --> ingresar. sin autenticar ==> error
[12:15] -- Cliente --> Ver. Usuario: 1 ==> ok
[12:16] -- Cliente --> Ver. Usuario: 1 ==> ok
[12:16] -- Cliente --> Ver. Usuario: sin perfil ==> error
[12:16] -- Cliente --> Ver. Usuario: 1 ==> ok
[12:16] -- Cliente --> Ver. Usuario: 1 ==> ok
[12:16] -- Cliente --> Ver. Usuario: sin perfil ==> error
[12:16] -- Cliente --> Ver. Usuario: 1 ==> ok
[12:16] -- perfil --> ingresar. usuario: 2 ==> ok
[12:16] -- perfil --> ingresar. sin autenticar ==> error
[12:18] -- Cliente --> Ver. Usuario: 1 ==> ok
[12:18] -- Cliente --> Ver. Usuario: 1 ==> ok
[12:21] -- perfil --> ingresar. usuario: 702 ==> ok
[12:23] -- Cliente --> Ver. Usuario: sin perfil ==> error
[12:23] -- Cliente --> Ver. Usuario: 1 ==> ok
[12:23] -- Cliente --> Ver. Usuario: 1 ==> ok
[12:23] -- Cliente --> Ver. Usuario: 1 ==> ok
[12:23] -- Cliente --> Ver. Usuario: sin perfil ==> error
[12:23] -- Cliente --> Ver. Usuario: 1 ==> ok
[12:23] -- Cliente --> Ver. Usuario: 1 ==> ok
[12:23] -- Cliente --> Ver. Usuario: sin perfil ==> error
[12:23] -- Cliente --> Ver. Usuario: 1 ==> ok
[12:23] -- Cliente --> Ver. Usuario: sin perfil ==> error
[12:23] -- Cliente --> Ver. Usuario: 1 ==> ok
[12:24] -- Cliente --> Ver. Usuario: 1 ==> ok
[12:25] -- Cliente --> Ver. Usuario: 1 ==> ok
[12:26] -- Usuario --> ver. usuario: 1 ==> ok
[12:26] -- Usuario --> ver. usuario: 1 ==> ok
[12:26] -- Cliente --> Ver. Usuario: 1 ==> ok
[12:33] -- Cliente --> Ver. Usuario: 2 ==> ok
[12:33] -- Cliente --> Ver. Usuario: 2 ==> ok
[12:33] -- perfil --> ingresar. usuario: 2, entrar_como: 696 ==> ok
[12:33] -- Lista --> ver. usuario: 2 ==> ok
[12:33] -- sms --> 99411932. Estimado Cliente,
usted mantiene una deuda con autopista central, por favor llamar al 227060711. Cod  439819801 ==> ok
[12:33] -- sms --> 86458869. Estimado Cliente,
usted mantiene una deuda con autopista central, por favor llamar al 227060711. Cod  980182013 ==> ok
[12:33] -- sms --> 92952396. Estimado Cliente,
usted mantiene una deuda con autopista central, por favor llamar al 227060711. Cod  121312132 ==> ok
[12:33] -- sms --> 50882259. Estimado Cliente,
usted mantiene una deuda con autopista central, por favor llamar al 227060711. Cod  343242342 ==> ok
[12:33] -- sms --> 62436528. Estimado Cliente,
usted mantiene una deuda con autopista central, por favor llamar al 227060711. Cod  423432432 ==> ok
[12:33] -- SMS --> enviar. usuario: 702, id_envio: 52227, destinatario: 62436528, id_contacto: 1384382, fecha: 2017-01-17 12:33:55.168782 ==> ok
[12:34] -- Cliente --> Ver. Usuario: 2 ==> ok
[12:35] -- Lista --> ver. usuario: 2 ==> ok
[12:36] -- Lista --> ver. usuario: 2 ==> ok
[12:36] -- Usuario --> ver. usuario: 1 ==> ok
[12:36] -- Usuario --> ver. usuario: 1 ==> ok
[12:37] -- Usuario --> ver. usuario: 1 ==> ok
[12:39] -- perfil --> ingresar. usuario: 2, entrar_como: 690 ==> ok
[12:42] -- perfil --> ingresar. sin autenticar ==> error
[12:43] -- Cliente --> Ver. Usuario: 2 ==> ok
[12:43] -- perfil --> ingresar. usuario: 2, entrar_como: 690 ==> ok
[12:47] -- MAIL --> enviar. usuario: 2id_envio: 52228, destinario :matias@connectus.cl ==> ok
[12:47] -- MAIL --> enviar. usuario: 2id_envio: 52228, destinario :altamat@gmail.com ==> ok
[12:47] -- MAIL --> enviar. usuario: 2id_envio: 52228, destinario :franciscarob@hotmail.com ==> ok
[12:54] -- Usuario --> ver. sin ingreso ==> ok
[12:54] -- perfil --> ingresar. sin autenticar ==> error
[13:09] -- Usuario --> ver. sin ingreso ==> ok
[13:09] -- perfil --> ingresar. sin autenticar ==> error
[13:14] -- perfil --> ingresar. sin autenticar ==> error
[13:16] -- perfil --> ingresar. sin autenticar ==> error
[13:19] -- perfil --> ingresar. sin autenticar ==> error
[13:35] -- perfil --> ingresar. sin autenticar ==> error
[13:44] -- perfil --> ingresar. usuario: 1 ==> ok
[13:45] -- Empresa --> ver pedidos. empresa: 132 ==> ok
[13:45] -- Empresa --> ver movimientos. empresa: 132 ==> ok
[14:00] -- perfil --> ingresar. usuario: 1, entrar_como: 415 ==> ok
[14:31] -- Reporte --> ver. usuario: 1 ==> ok
[14:34] -- perfil --> ingresar. usuario: 2 ==> ok
[14:41] -- Cliente --> Ver. Usuario: 2 ==> ok
[14:41] -- perfil --> ingresar. usuario: 2, entrar_como: 696 ==> ok
[14:41] -- Lista --> ver. usuario: 2 ==> ok
[14:41] -- Lista --> ver lista especifica. usuario: 2, lista: 3763 ==> ok
[14:44] -- perfil --> ingresar. sin autenticar ==> error
[14:44] -- Estado sms --> {'STATUS': 'WAITING FOR CONFIRMATION', 'DELIVERYDATE': '', 'MESSAGE': 'Success', 'CODE': 0, 'ID': '212028497'}. id_envio ==> ok
[15:07] -- perfil --> ingresar. usuario: 1, entrar_como: 415 ==> ok
[15:07] -- Reporte --> ver. usuario: 1 ==> ok
[15:07] -- Reporte --> ver. usuario: 1 ==> ok
[15:07] -- Reporte --> eliminar. usuario: 1, reporte: 110 ==> ok
[15:08] -- perfil --> ingresar. usuario: 1, entrar_como: 415 ==> ok
[15:08] -- perfil --> ingresar. usuario: 1, entrar_como: 415 ==> ok
[15:08] -- Lista --> ver. usuario: 1 ==> ok
[15:09] -- Lista --> ver. usuario: None ==> ok
[15:11] -- perfil --> ingresar. sin autenticar ==> error
[15:12] -- Lista --> ver. usuario: 1 ==> ok
[15:12] -- Lista --> ver lista especifica. usuario: 1, lista: 3737 ==> ok
[15:18] -- perfil --> ingresar. sin autenticar ==> error
[15:19] -- Lista --> ver. usuario: 1 ==> ok
[15:19] -- Lista --> ver lista especifica. usuario: 1, lista: 3737 ==> ok
[15:27] -- Mensajes recibidos --> empresa. 415 ==>  ok
[16:19] -- Usuario --> ver. usuario: 1 ==> ok
[16:19] -- Cliente --> Ver. Usuario: 1 ==> ok
[16:20] -- perfil --> ingresar. usuario: 1, entrar_como: 696 ==> ok
[16:23] -- Reporte --> ver. usuario: 1 ==> ok
[16:23] -- Lista --> ver. usuario: 1 ==> ok
[17:13] -- perfil --> ingresar. usuario: 1 ==> ok
[17:13] -- perfil --> ingresar. usuario: 1, entrar_como: 415 ==> ok
[17:13] -- perfil --> ingresar. usuario: 1, entrar_como: 415 ==> ok
[17:14] -- Cliente --> Ver. Usuario: 1 ==> ok
[17:29] -- sms recibido --> {'to': '56442147839', 'message': 'Estimada, el pago fue realizado hoy', 'arrived': '2017-01-17 17:19:37.923415', 'id': 21709267, 'from': '56971422602'}. 21709267 ==> ok
[17:39] -- Mensajes recibidos --> empresa. 415 ==>  ok
[17:54] -- perfil --> ingresar. usuario: 437 ==> ok
[17:55] -- perfil --> ingresar. usuario: 437 ==> ok
[17:56] -- perfil --> ingresar. usuario: 702 ==> ok
[17:57] -- perfil --> ingresar. usuario: 1 ==> ok
[17:57] -- Lista --> ver. usuario: 702 ==> ok
[17:59] -- Lista --> ver. usuario: 702 ==> ok
[18:01] -- ESTADO MAIL --> log. s/e ==> index error
[18:01] -- ESTADO MAIL --> log. s/e ==> index error
[18:01] -- ESTADO MAIL --> log. s/e ==> index error
[18:01] -- ESTADO MAIL --> log. s/e ==> index error
[18:01] -- ESTADO MAIL --> log. s/e ==> index error
[18:01] -- ESTADO MAIL --> log. delivered ==> ok
[18:01] -- ESTADO MAIL --> log. delivered ==> ok
[18:01] -- ESTADO MAIL --> log. delivered ==> ok
[18:08] -- SMS --> enviar. usuario: 702 ==> error: numero de contactos es 0
[18:08] -- SMS --> enviar. usuario: 702 ==> error: creditos insuficientes
[18:11] -- perfil --> ingresar. usuario: 1, entrar_como: 415 ==> ok
[18:17] -- perfil --> ingresar. usuario: 2 ==> ok
[18:25] -- Cliente --> Ver. Usuario: 2 ==> ok
[18:25] -- perfil --> ingresar. usuario: 2, entrar_como: 696 ==> ok
[18:37] -- perfil --> ingresar. usuario: 437 ==> ok
[18:37] -- perfil --> ingresar. usuario: 437 ==> ok
[18:42] -- perfil --> ingresar. usuario: 437 ==> ok
[18:45] -- Reporte --> ver. usuario: 437 ==> ok
[18:45] -- Cliente --> Ver. Usuario: 1 ==> ok
[18:45] -- Cliente --> Ver. Usuario: 437 ==> ok
[18:45] -- Usuario --> ver. usuario: 1 ==> ok
[18:47] -- Usuario --> ver. sin ingreso ==> ok
[18:47] -- perfil --> ingresar. usuario: 437 ==> ok
[18:47] -- Cliente --> Ver. Usuario: 437 ==> ok
[18:50] -- Cliente --> Ver. Usuario: 437 ==> ok
[18:50] -- perfil --> ingresar. usuario: 437 ==> ok
[18:50] -- Cliente --> Ver. Usuario: 1 ==> ok
[18:59] -- Usuario --> ver. sin ingreso ==> ok
[18:59] -- perfil --> ingresar. usuario: 437 ==> ok
[19:02] -- Usuario --> ver. sin ingreso ==> ok
[19:02] -- perfil --> ingresar. usuario: 437 ==> ok
[20:55] -- perfil --> ingresar. usuario: 547 ==> ok
[20:57] -- Lista --> ver. usuario: 547 ==> ok
[20:58] -- sms --> 95944322. Estimado(a) %Nombre%, le recordamos su hora de manana a las %Hora% con el/ la doctor(a) %Doctora% en Clinica Avaria. Holanda 099 oficina 206, Metro Tobalaba ==> ok
[20:58] -- sms --> 987278221. Estimado(a) %Nombre%, le recordamos su hora de manana a las %Hora% con el/ la doctor(a) %Doctora% en Clinica Avaria. Holanda 099 oficina 206, Metro Tobalaba ==> ok
[20:58] -- sms --> 998926803. Estimado(a) %Nombre%, le recordamos su hora de manana a las %Hora% con el/ la doctor(a) %Doctora% en Clinica Avaria. Holanda 099 oficina 206, Metro Tobalaba ==> ok
[20:58] -- sms --> 56977755753. Estimado(a) %Nombre%, le recordamos su hora de manana a las %Hora% con el/ la doctor(a) %Doctora% en Clinica Avaria. Holanda 099 oficina 206, Metro Tobalaba ==> ok
[20:58] -- sms --> 953335073. Estimado(a) %Nombre%, le recordamos su hora de manana a las %Hora% con el/ la doctor(a) %Doctora% en Clinica Avaria. Holanda 099 oficina 206, Metro Tobalaba ==> ok
[20:58] -- sms --> 942533625. Estimado(a) %Nombre%, le recordamos su hora de manana a las %Hora% con el/ la doctor(a) %Doctora% en Clinica Avaria. Holanda 099 oficina 206, Metro Tobalaba ==> ok
[20:58] -- sms --> 978061496. Estimado(a) %Nombre%, le recordamos su hora de manana a las %Hora% con el/ la doctor(a) %Doctora% en Clinica Avaria. Holanda 099 oficina 206, Metro Tobalaba ==> ok
[20:58] -- sms --> 984523765. Estimado(a) %Nombre%, le recordamos su hora de manana a las %Hora% con el/ la doctor(a) %Doctora% en Clinica Avaria. Holanda 099 oficina 206, Metro Tobalaba ==> ok
[20:58] -- sms --> 963687608. Estimado(a) %Nombre%, le recordamos su hora de manana a las %Hora% con el/ la doctor(a) %Doctora% en Clinica Avaria. Holanda 099 oficina 206, Metro Tobalaba ==> ok
[20:58] -- sms --> 988693777. Estimado(a) %Nombre%, le recordamos su hora de manana a las %Hora% con el/ la doctor(a) %Doctora% en Clinica Avaria. Holanda 099 oficina 206, Metro Tobalaba ==> ok
[20:58] -- sms --> 98377355. Estimado(a) %Nombre%, le recordamos su hora de manana a las %Hora% con el/ la doctor(a) %Doctora% en Clinica Avaria. Holanda 099 oficina 206, Metro Tobalaba ==> ok
[20:58] -- sms --> 990212400. Estimado(a) %Nombre%, le recordamos su hora de manana a las %Hora% con el/ la doctor(a) %Doctora% en Clinica Avaria. Holanda 099 oficina 206, Metro Tobalaba ==> ok
[20:58] -- sms --> 988285503. Estimado(a) %Nombre%, le recordamos su hora de manana a las %Hora% con el/ la doctor(a) %Doctora% en Clinica Avaria. Holanda 099 oficina 206, Metro Tobalaba ==> ok
[20:58] -- sms --> 71617374. Estimado(a) %Nombre%, le recordamos su hora de manana a las %Hora% con el/ la doctor(a) %Doctora% en Clinica Avaria. Holanda 099 oficina 206, Metro Tobalaba ==> ok
[20:58] -- sms --> 9990471821. Estimado(a) %Nombre%, le recordamos su hora de manana a las %Hora% con el/ la doctor(a) %Doctora% en Clinica Avaria. Holanda 099 oficina 206, Metro Tobalaba ==> ok
[20:58] -- sms --> 974325657. Estimado(a) %Nombre%, le recordamos su hora de manana a las %Hora% con el/ la doctor(a) %Doctora% en Clinica Avaria. Holanda 099 oficina 206, Metro Tobalaba ==> ok
[20:58] -- sms --> 88288765. Estimado(a) %Nombre%, le recordamos su hora de manana a las %Hora% con el/ la doctor(a) %Doctora% en Clinica Avaria. Holanda 099 oficina 206, Metro Tobalaba ==> ok
[20:58] -- sms --> 998217480. Estimado(a) %Nombre%, le recordamos su hora de manana a las %Hora% con el/ la doctor(a) %Doctora% en Clinica Avaria. Holanda 099 oficina 206, Metro Tobalaba ==> ok
[20:58] -- sms --> 963387379. Estimado(a) %Nombre%, le recordamos su hora de manana a las %Hora% con el/ la doctor(a) %Doctora% en Clinica Avaria. Holanda 099 oficina 206, Metro Tobalaba ==> ok
[20:58] -- sms --> 56988889415. Estimado(a) %Nombre%, le recordamos su hora de manana a las %Hora% con el/ la doctor(a) %Doctora% en Clinica Avaria. Holanda 099 oficina 206, Metro Tobalaba ==> ok
[20:58] -- sms --> 985662551. Estimado(a) %Nombre%, le recordamos su hora de manana a las %Hora% con el/ la doctor(a) %Doctora% en Clinica Avaria. Holanda 099 oficina 206, Metro Tobalaba ==> ok
[20:58] -- sms --> 950544070. Estimado(a) %Nombre%, le recordamos su hora de manana a las %Hora% con el/ la doctor(a) %Doctora% en Clinica Avaria. Holanda 099 oficina 206, Metro Tobalaba ==> ok
[20:58] -- sms --> 996415637. Estimado(a) %Nombre%, le recordamos su hora de manana a las %Hora% con el/ la doctor(a) %Doctora% en Clinica Avaria. Holanda 099 oficina 206, Metro Tobalaba ==> ok
[20:58] -- sms --> 85787587. Estimado(a) %Nombre%, le recordamos su hora de manana a las %Hora% con el/ la doctor(a) %Doctora% en Clinica Avaria. Holanda 099 oficina 206, Metro Tobalaba ==> ok
[20:58] -- sms --> 976178818. Estimado(a) %Nombre%, le recordamos su hora de manana a las %Hora% con el/ la doctor(a) %Doctora% en Clinica Avaria. Holanda 099 oficina 206, Metro Tobalaba ==> ok
[20:58] -- sms --> 988370848. Estimado(a) %Nombre%, le recordamos su hora de manana a las %Hora% con el/ la doctor(a) %Doctora% en Clinica Avaria. Holanda 099 oficina 206, Metro Tobalaba ==> ok
[20:58] -- sms --> 92355621. Estimado(a) %Nombre%, le recordamos su hora de manana a las %Hora% con el/ la doctor(a) %Doctora% en Clinica Avaria. Holanda 099 oficina 206, Metro Tobalaba ==> ok
[20:58] -- sms --> 942395276. Estimado(a) %Nombre%, le recordamos su hora de manana a las %Hora% con el/ la doctor(a) %Doctora% en Clinica Avaria. Holanda 099 oficina 206, Metro Tobalaba ==> ok
[20:58] -- sms --> 995182823. Estimado(a) %Nombre%, le recordamos su hora de manana a las %Hora% con el/ la doctor(a) %Doctora% en Clinica Avaria. Holanda 099 oficina 206, Metro Tobalaba ==> ok
[20:58] -- sms --> 991367427. Estimado(a) %Nombre%, le recordamos su hora de manana a las %Hora% con el/ la doctor(a) %Doctora% en Clinica Avaria. Holanda 099 oficina 206, Metro Tobalaba ==> ok
[20:58] -- sms --> 77091864. Estimado(a) %Nombre%, le recordamos su hora de manana a las %Hora% con el/ la doctor(a) %Doctora% en Clinica Avaria. Holanda 099 oficina 206, Metro Tobalaba ==> ok
[20:58] -- sms --> 962496460. Estimado(a) %Nombre%, le recordamos su hora de manana a las %Hora% con el/ la doctor(a) %Doctora% en Clinica Avaria. Holanda 099 oficina 206, Metro Tobalaba ==> ok
[20:58] -- sms --> 42984958. Estimado(a) %Nombre%, le recordamos su hora de manana a las %Hora% con el/ la doctor(a) %Doctora% en Clinica Avaria. Holanda 099 oficina 206, Metro Tobalaba ==> ok
[20:58] -- sms --> 97797588. Estimado(a) %Nombre%, le recordamos su hora de manana a las %Hora% con el/ la doctor(a) %Doctora% en Clinica Avaria. Holanda 099 oficina 206, Metro Tobalaba ==> ok
[20:58] -- sms --> 984235273. Estimado(a) %Nombre%, le recordamos su hora de manana a las %Hora% con el/ la doctor(a) %Doctora% en Clinica Avaria. Holanda 099 oficina 206, Metro Tobalaba ==> ok
[20:58] -- sms --> 54201555. Estimado(a) %Nombre%, le recordamos su hora de manana a las %Hora% con el/ la doctor(a) %Doctora% en Clinica Avaria. Holanda 099 oficina 206, Metro Tobalaba ==> ok
[20:58] -- sms --> 82483542. Estimado(a) %Nombre%, le recordamos su hora de manana a las %Hora% con el/ la doctor(a) %Doctora% en Clinica Avaria. Holanda 099 oficina 206, Metro Tobalaba ==> ok
[20:58] -- sms --> 53970055. Estimado(a) %Nombre%, le recordamos su hora de manana a las %Hora% con el/ la doctor(a) %Doctora% en Clinica Avaria. Holanda 099 oficina 206, Metro Tobalaba ==> ok
[20:58] -- sms --> 56993409340. Estimado(a) %Nombre%, le recordamos su hora de manana a las %Hora% con el/ la doctor(a) %Doctora% en Clinica Avaria. Holanda 099 oficina 206, Metro Tobalaba ==> ok
[20:58] -- sms --> 77953631. Estimado(a) %Nombre%, le recordamos su hora de manana a las %Hora% con el/ la doctor(a) %Doctora% en Clinica Avaria. Holanda 099 oficina 206, Metro Tobalaba ==> ok
[20:58] -- sms --> 991871234. Estimado(a) %Nombre%, le recordamos su hora de manana a las %Hora% con el/ la doctor(a) %Doctora% en Clinica Avaria. Holanda 099 oficina 206, Metro Tobalaba ==> ok
[20:58] -- sms --> 67281532. Estimado(a) %Nombre%, le recordamos su hora de manana a las %Hora% con el/ la doctor(a) %Doctora% en Clinica Avaria. Holanda 099 oficina 206, Metro Tobalaba ==> ok
[20:58] -- sms --> 42601219. Estimado(a) %Nombre%, le recordamos su hora de manana a las %Hora% con el/ la doctor(a) %Doctora% en Clinica Avaria. Holanda 099 oficina 206, Metro Tobalaba ==> ok
[20:58] -- sms --> 979883318. Estimado(a) %Nombre%, le recordamos su hora de manana a las %Hora% con el/ la doctor(a) %Doctora% en Clinica Avaria. Holanda 099 oficina 206, Metro Tobalaba ==> ok
[20:58] -- sms --> 83352386. Estimado(a) %Nombre%, le recordamos su hora de manana a las %Hora% con el/ la doctor(a) %Doctora% en Clinica Avaria. Holanda 099 oficina 206, Metro Tobalaba ==> ok
[20:58] -- sms --> 68035651. Estimado(a) %Nombre%, le recordamos su hora de manana a las %Hora% con el/ la doctor(a) %Doctora% en Clinica Avaria. Holanda 099 oficina 206, Metro Tobalaba ==> ok
[20:58] -- sms --> 982931529. Estimado(a) %Nombre%, le recordamos su hora de manana a las %Hora% con el/ la doctor(a) %Doctora% en Clinica Avaria. Holanda 099 oficina 206, Metro Tobalaba ==> ok
[20:58] -- sms --> 56978234595. Estimado(a) %Nombre%, le recordamos su hora de manana a las %Hora% con el/ la doctor(a) %Doctora% en Clinica Avaria. Holanda 099 oficina 206, Metro Tobalaba ==> ok
[20:58] -- sms --> 49438178. Estimado(a) %Nombre%, le recordamos su hora de manana a las %Hora% con el/ la doctor(a) %Doctora% en Clinica Avaria. Holanda 099 oficina 206, Metro Tobalaba ==> ok
[20:58] -- sms --> 94129183. Estimado(a) %Nombre%, le recordamos su hora de manana a las %Hora% con el/ la doctor(a) %Doctora% en Clinica Avaria. Holanda 099 oficina 206, Metro Tobalaba ==> ok
[20:58] -- SMS --> enviar. usuario: 547, id_envio: 52229, destinatario: 94129183, id_contacto: 1384632, fecha: 2017-01-17 20:58:16.321159 ==> ok
[20:59] -- sms recibido --> {'to': '56442147839', 'message': 'Confirmado.', 'arrived': '2017-01-17 20:50:18.9973', 'id': 21713185, 'from': '56974325657'}. 21713185 ==> ok
[21:00] -- sms recibido --> {'to': '56442147839', 'message': 'Ok..gracias..ahi estar', 'arrived': '2017-01-17 20:50:25.25795', 'id': 21713187, 'from': '56950544070'}. 21713187 ==> ok
[21:01] -- sms recibido --> {'to': '56442147839', 'message': '', 'arrived': '2017-01-17 20:51:35.045842', 'id': 21713208, 'from': '56954201555'}. 21713208 ==> ok
[21:01] -- perfil --> ingresar. usuario: 547 ==> ok
[21:03] -- Lista --> ver. usuario: 547 ==> ok
[21:04] -- sms --> 94129183. Estimado(a) %Nombre%, le recordamos su hora de manana a las %Hora% con el/la doctor(a) %Doctora% en Clinica Avaria. Holanda 099 oficina 206, Metro Tobalaba ==> ok
[21:04] -- sms --> 56989012335. Estimado(a) %Nombre%, le recordamos su hora de manana a las %Hora% con el/la doctor(a) %Doctora% en Clinica Avaria. Holanda 099 oficina 206, Metro Tobalaba ==> ok
[21:04] -- SMS --> enviar. usuario: 547, id_envio: 52230, destinatario: 56989012335, id_contacto: 1384634, fecha: 2017-01-17 21:04:56.863024 ==> ok
[21:05] -- Estado sms --> 212314286--CONFIRMED DELIVERY. envio valorizado ==> ok
[21:05] -- Estado sms --> 212314287--CONFIRMED DELIVERY. envio valorizado ==> ok
[21:10] -- sms --> 94129183. Estimado(a) Rosa le recordamos su hora de manana a las 10:00:00 con la doctora 10:00:00 en Clinica Avaria. Holanda 099 oficina 206, Metro Tobalaba ==> ok
[21:10] -- sms --> 56989012335. Estimado(a) Camila le recordamos su hora de manana a las 10:00:00 con la doctora 10:00:00 en Clinica Avaria. Holanda 099 oficina 206, Metro Tobalaba ==> ok
[21:10] -- SMS --> enviar. usuario: 547, id_envio: 52231, destinatario: 56989012335, id_contacto: 1384634, fecha: 2017-01-17 21:10:29.972338 ==> ok
[21:12] -- sms --> 94129183. Estimado(a) Rosa le recordamos su hora de manana a las 10:00:00 con la doctora 10:00:00 en Clinica Avaria. Holanda 099 oficina 206, Metro Tobalaba ==> ok
[21:12] -- sms --> 56989012335. Estimado(a) Camila le recordamos su hora de manana a las 10:00:00 con la doctora 10:00:00 en Clinica Avaria. Holanda 099 oficina 206, Metro Tobalaba ==> ok
[21:12] -- SMS --> enviar. usuario: 547, id_envio: 52232, destinatario: 56989012335, id_contacto: 1384634, fecha: 2017-01-17 21:12:00.069712 ==> ok
[22:02] -- sms recibido --> {'to': '56442147839', 'message': '3f', 'arrived': '2017-01-17 21:52:59.179071', 'id': 21714268, 'from': '56977091864'}. 21714268 ==> ok
[22:43] -- sms recibido --> {'to': '56442147839', 'message': '477261636961732e6365737461726520616c6ced2061206c6173203132', 'arrived': '2017-01-17 22:34:16.139322', 'id': 21715879, 'from': '56998217480'}. 21715879 ==> ok
