[16:00] -- perfil --> ingresar. sin autenticar ==> error
[16:00] -- perfil --> ingresar. sin autenticar ==> error
[18:08] -- sms recibido --> {'to': '56442147839', 'message': 'A las 7:00', 'arrived': '2017-03-05 18:07:37.899151', 'id': 23560888, 'from': '56988403242'}. 23560888 ==> ok
[18:08] -- sms recibido --> {'to': '56442147839', 'message': 'Me dijeron el martes 7 cuando fui el viernes 3/marzo/2017', 'arrived': '2017-03-05 18:07:20.166487', 'id': 23560877, 'from': '56988403242'}. 23560877 ==> ok
[19:15] -- sms recibido --> {'to': '56442147839', 'message': '4c6f207369656e746f206e6f20707565646f20617369737469722e2e2e706f6472ed612c73657220656c2064ed6120393f', 'arrived': '2017-03-05 19:14:30.219336', 'id': 23562543, 'from': '56995293037'}. 23562543 ==> ok
[19:43] -- sms recibido --> {'to': '56442147839', 'message': '', 'arrived': '2017-03-05 19:42:20.277998', 'id': 23562929, 'from': '56961407805'}. 23562929 ==> ok
[20:24] -- sms recibido --> {'to': '56442147839', 'message': 'No hay respuesta.  De que sepultura me hablan?   ', 'arrived': '2017-03-05 20:23:07.444412', 'id': 23563608, 'from': '56976087872'}. 23563608 ==> ok
[23:18] -- perfil --> ingresar. usuario: 2 ==> ok
[23:18] -- Cliente --> Ver. Usuario: 2 ==> ok
[23:18] -- perfil --> ingresar. usuario: 2, entrar_como: 697 ==> ok
[23:18] -- mensaje --> historico. tipo: SMS id_empresa: 697 ==> ok
[23:18] -- mensaje --> detalle historico. tipo: SMS id_empresa: 697 id_envio:59289 ==> ok
[23:18] -- mensaje --> detalle historico. tipo: SMS id_empresa: 697 id_envio:59288 ==> ok
[23:18] -- mensaje --> detalle historico. tipo: SMS id_empresa: 697 id_envio:59282 ==> ok
[23:19] -- mensaje --> historico. tipo: SMS id_empresa: 697 ==> ok
[23:19] -- mensaje --> detalle historico. tipo: SMS id_empresa: 697 id_envio:59274 ==> ok
[23:23] -- Cliente --> Ver. Usuario: 2 ==> ok
[23:23] -- perfil --> ingresar. usuario: 2, entrar_como: 696 ==> ok
[23:23] -- mensaje --> historico. tipo: SMS id_empresa: 696 ==> ok
[23:30] -- perfil --> ingresar. usuario: 2 ==> ok
